<svg width="16" height="16" viewBox="0 0 16 16" fill="none" xmlns="http://www.w3.org/2000/svg">
<path d="M15 2H1V13H15V2Z" fill="white"/>
<path d="M15 1H1C0.734784 1 0.48043 1.10536 0.292893 1.29289C0.105357 1.48043 0 1.73478 0 2L0 13C0 13.2652 0.105357 13.5196 0.292893 13.7071C0.48043 13.8946 0.734784 14 1 14H5L6 13H1V2H15V13V14C15.2652 14 15.5196 13.8946 15.7071 13.7071C15.8946 13.5196 16 13.2652 16 13V2C16 1.73478 15.8946 1.48043 15.7071 1.29289C15.5196 1.10536 15.2652 1 15 1Z" fill="#798288"/>
<path opacity="0.5" d="M9 3H2V5H9V3Z" fill="#407FB9"/>
<path opacity="0.5" d="M11 6H4V8H6.00391V7H11V6Z" fill="#D65633"/>
<path d="M7.50006 15C7.40219 14.9986 7.30689 14.9685 7.22595 14.9135C7.14501 14.8585 7.08201 14.7809 7.04474 14.6904C7.00748 14.5999 6.99759 14.5005 7.01631 14.4044C7.03503 14.3083 7.08154 14.2199 7.15006 14.15L13.1501 8.14997C13.2442 8.05582 13.3719 8.00293 13.5051 8.00293C13.6382 8.00293 13.7659 8.05582 13.8601 8.14997C13.9542 8.24413 14.0071 8.37182 14.0071 8.50498C14.0071 8.63813 13.9542 8.76582 13.8601 8.85997L7.86006 14.86C7.81233 14.906 7.75593 14.9421 7.69412 14.9661C7.63232 14.9902 7.56635 15.0017 7.50006 15Z" fill="#2A9190"/>
<path d="M13 13V14H12V13H13ZM13.5 12H11.5C11.3674 12 11.2402 12.0527 11.1464 12.1464C11.0527 12.2402 11 12.3674 11 12.5V14.5C11 14.6326 11.0527 14.7598 11.1464 14.8536C11.2402 14.9473 11.3674 15 11.5 15H13.5C13.6326 15 13.7598 14.9473 13.8536 14.8536C13.9473 14.7598 14 14.6326 14 14.5V12.5C14 12.3674 13.9473 12.2402 13.8536 12.1464C13.7598 12.0527 13.6326 12 13.5 12Z" fill="#2A9190"/>
<path d="M9 9V10H8V9H9ZM9.5 8H7.5C7.36739 8 7.24021 8.05268 7.14645 8.14645C7.05268 8.24021 7 8.36739 7 8.5V10.5C7 10.6326 7.05268 10.7598 7.14645 10.8536C7.24021 10.9473 7.36739 11 7.5 11H9.5C9.63261 11 9.75979 10.9473 9.85355 10.8536C9.94732 10.7598 10 10.6326 10 10.5V8.5C10 8.36739 9.94732 8.24021 9.85355 8.14645C9.75979 8.05268 9.63261 8 9.5 8Z" fill="#2A9190"/>
</svg>
